<?xml version="1.0" encoding="UTF-8" standalone="no"?>
<!DOCTYPE svg PUBLIC "-//W3C//DTD SVG 1.1//EN" "http://www.w3.org/Graphics/SVG/1.1/DTD/svg11.dtd">
<svg xmlns="http://www.w3.org/2000/svg" version="1.1" id="svgwhole" width="100%" height="100%" onload="main_loaded();">
  <script type="text/javascript"> <![CDATA[
      function main_loaded() {
        console.log('tratata');
        var svgwhole=document.getElementById("svgwhole");
        var thead=document.getElementById("thead");
        console.log('wholesvg:', svgwhole.width.baseVal.value, 'x', svgwhole.height.baseVal.value);
        console.log('wholesvg computed width:', svgwhole.getBoundingClientRect().width);
        console.log('thead:', thead.width.baseVal.value, 'x', thead.height.baseVal.value);
      }
    ]]>
  </script>
  <!-- topmenu -->
  <svg xmlns="http://www.w3.org/2000/svg" version="1.1" id="thead" x="64" y="0" width="1300" height="32">
    <rect x="0" y="0" width="100%" height="100%" style="fill:silver;stroke-width:1;stroke:black"/>
    <g style="stroke:rgb(255,255,0);stroke-width:1">  <!-- 1/7 ~ 14% -->
      <line x1="14%" y1="0" x2="14%" y2="100%"/>
      <line x1="28%" y1="0" x2="28%" y2="100%"/>
      <line x1="42%" y1="0" x2="42%" y2="100%"/>
      <line x1="56%" y1="0" x2="56%" y2="100%"/>
      <line x1="70%" y1="0" x2="70%" y2="100%"/>
      <line x1="84%" y1="0" x2="84%" y2="100%"/>
      <line x1="99%" y1="0" x2="99%" y2="100%"/>
    </g>
    <g fill="black" style="text-anchor: middle;">
      <text x="7%" y="16"><tspan dy="0.5ex">Пн</tspan></text>
      <text x="21%" y="16"><tspan dy="0.5ex">Вт</tspan></text>
      <text x="35%" y="16"><tspan style="baseline-shift: -40%">Ср</tspan></text>
      <text x="49%" y="16"><tspan baseline-shift="-40%">Чт</tspan></text>
      <text x="63%" y="16"><tspan dy="0.5ex">Пт</tspan></text>
      <text x="77%" y="16"><tspan dy="0.5ex">Сб</tspan></text>
      <text x="92%" y="16"><tspan dy="0.5ex">Вс</tspan></text>
    </g>
  </svg>
  <svg xmlns="http://www.w3.org/2000/svg" version="1.1" id="lhead" x="0" y="33" width="64" height="99%">
    <rect width="100%" height="100%" style="fill:rgb(192,192,192);stroke-width:1;stroke:rgb(0,0,0)"/>
    <g style="stroke:rgb(255,255,0);stroke-width:1">
      <line x1="0" y1="7%" x2="100%" y2="7%"/>
      <line x1="0" y1="14%" x2="100%" y2="14%"/>
      <line x1="0" y1="21%" x2="100%" y2="21%"/>
    </g>
    <g fill="black">
      <text x="0" y="0%"><tspan dy="1em">08:00</tspan></text>
      <text x="0" y="7%"><tspan dy="1em">09:00</tspan></text>
      <text x="0" y="14%"><tspan dy="1em">10:00</tspan></text>
      <text x="0" y="21%"><tspan dy="1em">11:00</tspan></text>
      <text x="0" y="86%"><tspan dy="1em">20:00</tspan></text>
      <text x="0" y="93%"><tspan dy="1em">21:00</tspan></text>
    </g>
  </svg>
  <svg xmlns="http://www.w3.org/2000/svg" version="1.1" id="svgbody" x="65" y="33" width="100%" height="100%">
    <rect width="100%" height="100%" style="fill:rgb(192,192,192);stroke-width:1;stroke:rgb(0,0,0)"/>
    <g style="stroke:rgb(255,255,0);stroke-width:1">
      <line x1="14%" y1="0" x2="14%" y2="100%"/>
      <line x1="28%" y1="0" x2="28%" y2="100%"/>
      <line x1="42%" y1="0" x2="42%" y2="100%"/>
      <line x1="56%" y1="0" x2="56%" y2="100%"/>
      <line x1="70%" y1="0" x2="70%" y2="100%"/>
      <line x1="84%" y1="0" x2="84%" y2="100%"/>
    </g>
    <g style="stroke:rgb(255,255,0);stroke-width:1">
      <line x1="0" y1="7%" x2="100%" y2="7%"/>
      <line x1="0" y1="14%" x2="100%" y2="14%"/>
      <line x1="0" y1="21%" x2="100%" y2="21%"/>
      <line x1="0" y1="86%" x2="100%" y2="86%"/>
      <line x1="0" y1="93%" x2="100%" y2="93%"/>
    </g>
  </svg>
</svg>
